v 0 0 0
v 6.684539906e-014 0.2469165317 0.01284210318
v 2.799670502e-013 0.5280057554 0.01377279078
v 3.592373117e-013 0.6386873816 0.04049851825
v 0.183535499 0.4768050866 0.01659823367
v 0.2268521884 0.2031783167 -0.005102000776
v 0.2449384016 -0.01702157311 0.05846602705
v 0.2546713902 -0.09936745797 0.08331090509
v -0.183535 0.476809 0.01659821803
v -0.226852 0.203179 -0.005101981967
v -0.244938 -0.017022 0.05846601803
v -0.254671 -0.099367 0.08331091803
v 0.08199143868 -1.669654876e-007 0.03196837485
v 0.08256609182 -0.4022252167 0.03164435001
v 0.08271965298 -0.8038967319 0.009073499766
v 0.08188321637 -0.8632677231 0.1082678537
v -0.0819914 4.107825191e-017 0.03196841803
v -0.0825661 -0.402225 0.03164431803
v -0.0827197 -0.8038967 0.009073518033
v -0.08188287415 -0.8632677065 0.1082677743
v 2.103098377e-013 0.4652584505 -0.01735356129
v 0.2546713902 -0.09936745797 0.08331090509
v 0.2856482899 -0.06096715096 0.1022079877
v -0.254671 -0.099367 0.08331091803
v -0.285648 -0.060967 0.102208018